test an adder/sim/transcript
# //  Questa Sim-64
# //  Version 10.7c linux_x86_64 Aug 17 2018
# //
# //  Copyright 1991-2018 Mentor Graphics Corporation
# //  All Rights Reserved.
# //
# //  QuestaSim and its associated documentation contain trade
# //  secrets and commercial or financial information that are the property of
# //  Mentor Graphics Corporation and are privileged, confidential,
# //  and exempt from disclosure under the Freedom of Information Act,
# //  5 U.S.C. Section 552. Furthermore, this information
# //  is prohibited from disclosure under the Trade Secrets Act,
# //  18 U.S.C. Section 1905.
# //
# vsim top 
# Start time: 13:39:53 on May 06,2021
# ** Note: (vsim-3813) Design is being optimized due to module recompilation...
# ** Warning: ../tb/monitor.sv(49): (vopt-2240) Treating stand-alone use of function 'begin_tr' as an implicit VOID cast.
# ** Warning: ../tb/monitor_out.sv(48): (vopt-2240) Treating stand-alone use of function 'begin_tr' as an implicit VOID cast.
# Loading sv_std.std
# Loading mtiUvm.uvm_pkg
# Loading work.top_sv_unit(fast)
# Loading work.top(fast)
# Loading work.DUT(fast)
# Loading mtiUvm.questa_uvm_pkg(fast)
# Loading work.dut_if(fast)
# ** Warning: (vsim-3838) Variable '/top/out/data' written by continuous and procedural assignments. 
# One of the assignments is implicit. See ../src/DUT.sv(9).
#    Time: 0 ns  Iteration: 0  Instance: /top/sum File: ../src/DUT.sv Line: 3
# ** Warning: (vsim-3764) Stand-alone call to function 'begin_tr' treated as implicit void cast.
#    Time: 0 ns  Iteration: 0  Region: /top_sv_unit::driver File: ../tb/driver.sv Line: 67
# Loading /software/mentor/questa10.7c/questasim/uvm-1.1d/linux_x86_64/uvm_dpi.so
run
# ----------------------------------------------------------------
# UVM-1.1d
# (C) 2007-2013 Mentor Graphics Corporation
# (C) 2007-2013 Cadence Design Systems, Inc.
# (C) 2006-2013 Synopsys, Inc.
# (C) 2011-2013 Cypress Semiconductor Corp.
# ----------------------------------------------------------------
# 
#   ***********       IMPORTANT RELEASE NOTES         ************
# 
#   You are using a version of the UVM library that has been compiled
#   with `UVM_NO_DEPRECATED undefined.
#   See http://www.eda.org/svdb/view.php?id=3313 for more details.
# 
#   You are using a version of the UVM library that has been compiled
#   with `UVM_OBJECT_MUST_HAVE_CONSTRUCTOR undefined.
#   See http://www.eda.org/svdb/view.php?id=3770 for more details.
# 
#       (Specify +UVM_NO_RELNOTES to turn off this notice)
# 
# UVM_INFO verilog_src/questa_uvm_pkg-1.2/src/questa_uvm_pkg.sv(215) @ 0: reporter [Questa UVM] QUESTA_UVM-1.2.3
# UVM_INFO verilog_src/questa_uvm_pkg-1.2/src/questa_uvm_pkg.sv(216) @ 0: reporter [Questa UVM]  questa_uvm::init(+struct)
# UVM_INFO @ 0: reporter [RNTST] Running test simple_test...
# adder: input A =        147, input B =        624, output OUT =        771
# adder: input A = 00000000000000000000000010010011, input B = 00000000000000000000001001110000, output OUT = 00000000000000000000001100000011
# refmod: input A =         147, input B =         624, output OUT =        -477
# refmod: input A = 00000000000000000000000010010011, input B = 00000000000000000000001001110000, output OUT = 11111111111111111111111000100011
# UVM_INFO @ 45: reporter [MISCMP] Miscompare for exp.data: lhs = 'hfffffe23 : rhs = 'h303
# UVM_INFO @ 45: reporter [MISCMP] 1 Miscompare(s) for object tr@825 vs. exp@617
# UVM_WARNING @ 45: uvm_test_top.env_h.comp [Comparator Mismatch] 
# adder: input A =        552, input B =       2067, output OUT =       2619
# adder: input A = 00000000000000000000001000101000, input B = 00000000000000000000100000010011, output OUT = 00000000000000000000101000111011
# refmod: input A =         552, input B =        2067, output OUT =       -1515
# refmod: input A = 00000000000000000000001000101000, input B = 00000000000000000000100000010011, output OUT = 11111111111111111111101000010101
# UVM_INFO @ 75: reporter [MISCMP] Miscompare for exp.data: lhs = 'hfffffa15 : rhs = 'ha3b
# UVM_INFO @ 75: reporter [MISCMP] 1 Miscompare(s) for object tr@825 vs. exp@617
# UVM_WARNING @ 75: uvm_test_top.env_h.comp [Comparator Mismatch] 
# adder: input A =        539, input B =       1679, output OUT =       2218
# adder: input A = 00000000000000000000001000011011, input B = 00000000000000000000011010001111, output OUT = 00000000000000000000100010101010
# refmod: input A =         539, input B =        1679, output OUT =       -1140
# refmod: input A = 00000000000000000000001000011011, input B = 00000000000000000000011010001111, output OUT = 11111111111111111111101110001100
# UVM_INFO @ 105: reporter [MISCMP] Miscompare for exp.data: lhs = 'hfffffb8c : rhs = 'h8aa
# UVM_INFO @ 105: reporter [MISCMP] 1 Miscompare(s) for object tr@825 vs. exp@617
# UVM_WARNING @ 105: uvm_test_top.env_h.comp [Comparator Mismatch] 
# adder: input A =        488, input B =        269, output OUT =        757
# adder: input A = 00000000000000000000000111101000, input B = 00000000000000000000000100001101, output OUT = 00000000000000000000001011110101
# refmod: input A =         488, input B =         269, output OUT =         219
# refmod: input A = 00000000000000000000000111101000, input B = 00000000000000000000000100001101, output OUT = 00000000000000000000000011011011
# UVM_INFO @ 135: reporter [MISCMP] Miscompare for exp.data: lhs = 'hdb : rhs = 'h2f5
# UVM_INFO @ 135: reporter [MISCMP] 1 Miscompare(s) for object tr@825 vs. exp@617
# UVM_WARNING @ 135: uvm_test_top.env_h.comp [Comparator Mismatch] 
# adder: input A =        712, input B =       5347, output OUT =       6059
# adder: input A = 00000000000000000000001011001000, input B = 00000000000000000001010011100011, output OUT = 00000000000000000001011110101011
# refmod: input A =         712, input B =        5347, output OUT =       -4635
# refmod: input A = 00000000000000000000001011001000, input B = 00000000000000000001010011100011, output OUT = 11111111111111111110110111100101
# UVM_INFO @ 165: reporter [MISCMP] Miscompare for exp.data: lhs = 'hffffede5 : rhs = 'h17ab
# UVM_INFO @ 165: reporter [MISCMP] 1 Miscompare(s) for object tr@825 vs. exp@617
# UVM_WARNING @ 165: uvm_test_top.env_h.comp [Comparator Mismatch] 
# adder: input A =        175, input B =        342, output OUT =        517
# adder: input A = 00000000000000000000000010101111, input B = 00000000000000000000000101010110, output OUT = 00000000000000000000001000000101
# refmod: input A =         175, input B =         342, output OUT =        -167
# refmod: input A = 00000000000000000000000010101111, input B = 00000000000000000000000101010110, output OUT = 11111111111111111111111101011001
# UVM_INFO @ 195: reporter [MISCMP] Miscompare for exp.data: lhs = 'hffffff59 : rhs = 'h205
# UVM_INFO @ 195: reporter [MISCMP] 1 Miscompare(s) for object tr@825 vs. exp@617
# UVM_WARNING @ 195: uvm_test_top.env_h.comp [Comparator Mismatch] 
# adder: input A =        363, input B =        165, output OUT =        528
# adder: input A = 00000000000000000000000101101011, input B = 00000000000000000000000010100101, output OUT = 00000000000000000000001000010000
# refmod: input A =         363, input B =         165, output OUT =         198
# refmod: input A = 00000000000000000000000101101011, input B = 00000000000000000000000010100101, output OUT = 00000000000000000000000011000110
# UVM_INFO @ 225: reporter [MISCMP] Miscompare for exp.data: lhs = 'hc6 : rhs = 'h210
# UVM_INFO @ 225: reporter [MISCMP] 1 Miscompare(s) for object tr@825 vs. exp@617
# UVM_WARNING @ 225: uvm_test_top.env_h.comp [Comparator Mismatch] 
# adder: input A =        162, input B =       1302, output OUT =       1464
# adder: input A = 00000000000000000000000010100010, input B = 00000000000000000000010100010110, output OUT = 00000000000000000000010110111000
# refmod: input A =         162, input B =        1302, output OUT =       -1140
# refmod: input A = 00000000000000000000000010100010, input B = 00000000000000000000010100010110, output OUT = 11111111111111111111101110001100
# UVM_INFO @ 255: reporter [MISCMP] Miscompare for exp.data: lhs = 'hfffffb8c : rhs = 'h5b8
# UVM_INFO @ 255: reporter [MISCMP] 1 Miscompare(s) for object tr@825 vs. exp@617
# UVM_WARNING @ 255: uvm_test_top.env_h.comp [Comparator Mismatch] 
# adder: input A =        248, input B =        553, output OUT =        801
# adder: input A = 00000000000000000000000011111000, input B = 00000000000000000000001000101001, output OUT = 00000000000000000000001100100001
# refmod: input A =         248, input B =         553, output OUT =        -305
# refmod: input A = 00000000000000000000000011111000, input B = 00000000000000000000001000101001, output OUT = 11111111111111111111111011001111
# UVM_INFO @ 285: reporter [MISCMP] Miscompare for exp.data: lhs = 'hfffffecf : rhs = 'h321
# UVM_INFO @ 285: reporter [MISCMP] 1 Miscompare(s) for object tr@825 vs. exp@617
# UVM_WARNING @ 285: uvm_test_top.env_h.comp [Comparator Mismatch] 
# adder: input A =        665, input B =       3576, output OUT =       4241
# adder: input A = 00000000000000000000001010011001, input B = 00000000000000000000110111111000, output OUT = 00000000000000000001000010010001
# refmod: input A =         665, input B =        3576, output OUT =       -2911
# refmod: input A = 00000000000000000000001010011001, input B = 00000000000000000000110111111000, output OUT = 11111111111111111111010010100001
# UVM_INFO @ 315: reporter [MISCMP] Miscompare for exp.data: lhs = 'hfffff4a1 : rhs = 'h1091
# UVM_INFO @ 315: reporter [MISCMP] 1 Miscompare(s) for object tr@825 vs. exp@617
# UVM_WARNING @ 315: uvm_test_top.env_h.comp [Comparator Mismatch] 
# adder: input A =        970, input B =       8835, output OUT =       9805
# adder: input A = 00000000000000000000001111001010, input B = 00000000000000000010001010000011, output OUT = 00000000000000000010011001001101
# refmod: input A =         970, input B =        8835, output OUT =       -7865
# refmod: input A = 00000000000000000000001111001010, input B = 00000000000000000010001010000011, output OUT = 11111111111111111110000101000111
# UVM_INFO @ 345: reporter [MISCMP] Miscompare for exp.data: lhs = 'hffffe147 : rhs = 'h264d
# UVM_INFO @ 345: reporter [MISCMP] 1 Miscompare(s) for object tr@825 vs. exp@617
# UVM_WARNING @ 345: uvm_test_top.env_h.comp [Comparator Mismatch] 
# adder: input A =        111, input B =        186, output OUT =        297
# adder: input A = 00000000000000000000000001101111, input B = 00000000000000000000000010111010, output OUT = 00000000000000000000000100101001
# refmod: input A =         111, input B =         186, output OUT =         -75
# refmod: input A = 00000000000000000000000001101111, input B = 00000000000000000000000010111010, output OUT = 11111111111111111111111110110101
# UVM_INFO @ 375: reporter [MISCMP] Miscompare for exp.data: lhs = 'hffffffb5 : rhs = 'h129
# UVM_INFO @ 375: reporter [MISCMP] 1 Miscompare(s) for object tr@825 vs. exp@617
# UVM_WARNING @ 375: uvm_test_top.env_h.comp [Comparator Mismatch] 
# adder: input A =        679, input B =       5666, output OUT =       6345
# adder: input A = 00000000000000000000001010100111, input B = 00000000000000000001011000100010, output OUT = 00000000000000000001100011001001
# refmod: input A =         679, input B =        5666, output OUT =       -4987
# refmod: input A = 00000000000000000000001010100111, input B = 00000000000000000001011000100010, output OUT = 11111111111111111110110010000101
# UVM_INFO @ 405: reporter [MISCMP] Miscompare for exp.data: lhs = 'hffffec85 : rhs = 'h18c9
# UVM_INFO @ 405: reporter [MISCMP] 1 Miscompare(s) for object tr@825 vs. exp@617
# UVM_WARNING @ 405: uvm_test_top.env_h.comp [Comparator Mismatch] 
# adder: input A =        808, input B =       7416, output OUT =       8224
# adder: input A = 00000000000000000000001100101000, input B = 00000000000000000001110011111000, output OUT = 00000000000000000010000000100000
# refmod: input A =         808, input B =        7416, output OUT =       -6608
# refmod: input A = 00000000000000000000001100101000, input B = 00000000000000000001110011111000, output OUT = 11111111111111111110011000110000
# UVM_INFO @ 435: reporter [MISCMP] Miscompare for exp.data: lhs = 'hffffe630 : rhs = 'h2020
# UVM_INFO @ 435: reporter [MISCMP] 1 Miscompare(s) for object tr@825 vs. exp@617
# UVM_WARNING @ 435: uvm_test_top.env_h.comp [Comparator Mismatch] 
# adder: input A =        396, input B =       1082, output OUT =       1478
# adder: input A = 00000000000000000000000110001100, input B = 00000000000000000000010000111010, output OUT = 00000000000000000000010111000110
# refmod: input A =         396, input B =        1082, output OUT =        -686
# refmod: input A = 00000000000000000000000110001100, input B = 00000000000000000000010000111010, output OUT = 11111111111111111111110101010010
# UVM_INFO @ 465: reporter [MISCMP] Miscompare for exp.data: lhs = 'hfffffd52 : rhs = 'h5c6
# UVM_INFO @ 465: reporter [MISCMP] 1 Miscompare(s) for object tr@825 vs. exp@617
# UVM_WARNING @ 465: uvm_test_top.env_h.comp [Comparator Mismatch] 
# adder: input A =        170, input B =       1626, output OUT =       1796
# adder: input A = 00000000000000000000000010101010, input B = 00000000000000000000011001011010, output OUT = 00000000000000000000011100000100
# refmod: input A =         170, input B =        1626, output OUT =       -1456
# refmod: input A = 00000000000000000000000010101010, input B = 00000000000000000000011001011010, output OUT = 11111111111111111111101001010000
# UVM_INFO @ 495: reporter [MISCMP] Miscompare for exp.data: lhs = 'hfffffa50 : rhs = 'h704
# UVM_INFO @ 495: reporter [MISCMP] 1 Miscompare(s) for object tr@825 vs. exp@617
# UVM_WARNING @ 495: uvm_test_top.env_h.comp [Comparator Mismatch] 
# adder: input A =        871, input B =       8579, output OUT =       9450
# adder: input A = 00000000000000000000001101100111, input B = 00000000000000000010000110000011, output OUT = 00000000000000000010010011101010
# refmod: input A =         871, input B =        8579, output OUT =       -7708
# refmod: input A = 00000000000000000000001101100111, input B = 00000000000000000010000110000011, output OUT = 11111111111111111110000111100100
# UVM_INFO @ 525: reporter [MISCMP] Miscompare for exp.data: lhs = 'hffffe1e4 : rhs = 'h24ea
# UVM_INFO @ 525: reporter [MISCMP] 1 Miscompare(s) for object tr@825 vs. exp@617
# UVM_WARNING @ 525: uvm_test_top.env_h.comp [Comparator Mismatch] 
# adder: input A =        764, input B =       3274, output OUT =       4038
# adder: input A = 00000000000000000000001011111100, input B = 00000000000000000000110011001010, output OUT = 00000000000000000000111111000110
# refmod: input A =         764, input B =        3274, output OUT =       -2510
# refmod: input A = 00000000000000000000001011111100, input B = 00000000000000000000110011001010, output OUT = 11111111111111111111011000110010
# UVM_INFO @ 555: reporter [MISCMP] Miscompare for exp.data: lhs = 'hfffff632 : rhs = 'hfc6
# UVM_INFO @ 555: reporter [MISCMP] 1 Miscompare(s) for object tr@825 vs. exp@617
# UVM_WARNING @ 555: uvm_test_top.env_h.comp [Comparator Mismatch] 
# adder: input A =        901, input B =       5617, output OUT =       6518
# adder: input A = 00000000000000000000001110000101, input B = 00000000000000000001010111110001, output OUT = 00000000000000000001100101110110
# refmod: input A =         901, input B =        5617, output OUT =       -4716
# refmod: input A = 00000000000000000000001110000101, input B = 00000000000000000001010111110001, output OUT = 11111111111111111110110110010100
# UVM_INFO @ 585: reporter [MISCMP] Miscompare for exp.data: lhs = 'hffffed94 : rhs = 'h1976
# UVM_INFO @ 585: reporter [MISCMP] 1 Miscompare(s) for object tr@825 vs. exp@617
# UVM_WARNING @ 585: uvm_test_top.env_h.comp [Comparator Mismatch] 
# adder: input A =        941, input B =       6812, output OUT =       7753
# adder: input A = 00000000000000000000001110101101, input B = 00000000000000000001101010011100, output OUT = 00000000000000000001111001001001
# refmod: input A =         941, input B =        6812, output OUT =       -5871
# refmod: input A = 00000000000000000000001110101101, input B = 00000000000000000001101010011100, output OUT = 11111111111111111110100100010001
# UVM_INFO @ 615: reporter [MISCMP] Miscompare for exp.data: lhs = 'hffffe911 : rhs = 'h1e49
# UVM_INFO @ 615: reporter [MISCMP] 1 Miscompare(s) for object tr@825 vs. exp@617
# UVM_WARNING @ 615: uvm_test_top.env_h.comp [Comparator Mismatch] 
# adder: input A =        493, input B =       4784, output OUT =       5277
# adder: input A = 00000000000000000000000111101101, input B = 00000000000000000001001010110000, output OUT = 00000000000000000001010010011101
# refmod: input A =         493, input B =        4784, output OUT =       -4291
# refmod: input A = 00000000000000000000000111101101, input B = 00000000000000000001001010110000, output OUT = 11111111111111111110111100111101
# UVM_INFO @ 645: reporter [MISCMP] Miscompare for exp.data: lhs = 'hffffef3d : rhs = 'h149d
# UVM_INFO @ 645: reporter [MISCMP] 1 Miscompare(s) for object tr@825 vs. exp@617
# UVM_WARNING @ 645: uvm_test_top.env_h.comp [Comparator Mismatch] 
# adder: input A =        753, input B =       2533, output OUT =       3286
# adder: input A = 00000000000000000000001011110001, input B = 00000000000000000000100111100101, output OUT = 00000000000000000000110011010110
# refmod: input A =         753, input B =        2533, output OUT =       -1780
# refmod: input A = 00000000000000000000001011110001, input B = 00000000000000000000100111100101, output OUT = 11111111111111111111100100001100
# UVM_INFO @ 675: reporter [MISCMP] Miscompare for exp.data: lhs = 'hfffff90c : rhs = 'hcd6
# UVM_INFO @ 675: reporter [MISCMP] 1 Miscompare(s) for object tr@825 vs. exp@617
# UVM_WARNING @ 675: uvm_test_top.env_h.comp [Comparator Mismatch] 
# adder: input A =        106, input B =         59, output OUT =        165
# adder: input A = 00000000000000000000000001101010, input B = 00000000000000000000000000111011, output OUT = 00000000000000000000000010100101
# refmod: input A =         106, input B =          59, output OUT =          47
# refmod: input A = 00000000000000000000000001101010, input B = 00000000000000000000000000111011, output OUT = 00000000000000000000000000101111
# UVM_INFO @ 705: reporter [MISCMP] Miscompare for exp.data: lhs = 'h2f : rhs = 'ha5
# UVM_INFO @ 705: reporter [MISCMP] 1 Miscompare(s) for object tr@825 vs. exp@617
# UVM_WARNING @ 705: uvm_test_top.env_h.comp [Comparator Mismatch] 
# adder: input A =        954, input B =       4349, output OUT =       5303
# adder: input A = 00000000000000000000001110111010, input B = 00000000000000000001000011111101, output OUT = 00000000000000000001010010110111
# refmod: input A =         954, input B =        4349, output OUT =       -3395
# refmod: input A = 00000000000000000000001110111010, input B = 00000000000000000001000011111101, output OUT = 11111111111111111111001010111101
# UVM_INFO @ 735: reporter [MISCMP] Miscompare for exp.data: lhs = 'hfffff2bd : rhs = 'h14b7
# UVM_INFO @ 735: reporter [MISCMP] 1 Miscompare(s) for object tr@825 vs. exp@617
# UVM_WARNING @ 735: uvm_test_top.env_h.comp [Comparator Mismatch] 
# adder: input A =        652, input B =       5450, output OUT =       6102
# adder: input A = 00000000000000000000001010001100, input B = 00000000000000000001010101001010, output OUT = 00000000000000000001011111010110
# refmod: input A =         652, input B =        5450, output OUT =       -4798
# refmod: input A = 00000000000000000000001010001100, input B = 00000000000000000001010101001010, output OUT = 11111111111111111110110101000010
# UVM_INFO @ 765: reporter [MISCMP] Miscompare for exp.data: lhs = 'hffffed42 : rhs = 'h17d6
# UVM_INFO @ 765: reporter [MISCMP] 1 Miscompare(s) for object tr@825 vs. exp@617
# UVM_WARNING @ 765: uvm_test_top.env_h.comp [Comparator Mismatch] 
# adder: input A =        965, input B =       7681, output OUT =       8646
# adder: input A = 00000000000000000000001111000101, input B = 00000000000000000001111000000001, output OUT = 00000000000000000010000111000110
# refmod: input A =         965, input B =        7681, output OUT =       -6716
# refmod: input A = 00000000000000000000001111000101, input B = 00000000000000000001111000000001, output OUT = 11111111111111111110010111000100
# UVM_INFO @ 795: reporter [MISCMP] Miscompare for exp.data: lhs = 'hffffe5c4 : rhs = 'h21c6
# UVM_INFO @ 795: reporter [MISCMP] 1 Miscompare(s) for object tr@825 vs. exp@617
# UVM_WARNING @ 795: uvm_test_top.env_h.comp [Comparator Mismatch] 
# adder: input A =        479, input B =       1609, output OUT =       2088
# adder: input A = 00000000000000000000000111011111, input B = 00000000000000000000011001001001, output OUT = 00000000000000000000100000101000
# refmod: input A =         479, input B =        1609, output OUT =       -1130
# refmod: input A = 00000000000000000000000111011111, input B = 00000000000000000000011001001001, output OUT = 11111111111111111111101110010110
# UVM_INFO @ 825: reporter [MISCMP] Miscompare for exp.data: lhs = 'hfffffb96 : rhs = 'h828
# UVM_INFO @ 825: reporter [MISCMP] 1 Miscompare(s) for object tr@825 vs. exp@617
# UVM_WARNING @ 825: uvm_test_top.env_h.comp [Comparator Mismatch] 
# adder: input A =        181, input B =       1535, output OUT =       1716
# adder: input A = 00000000000000000000000010110101, input B = 00000000000000000000010111111111, output OUT = 00000000000000000000011010110100
# refmod: input A =         181, input B =        1535, output OUT =       -1354
# refmod: input A = 00000000000000000000000010110101, input B = 00000000000000000000010111111111, output OUT = 11111111111111111111101010110110
# UVM_INFO @ 855: reporter [MISCMP] Miscompare for exp.data: lhs = 'hfffffab6 : rhs = 'h6b4
# UVM_INFO @ 855: reporter [MISCMP] 1 Miscompare(s) for object tr@825 vs. exp@617
# UVM_WARNING @ 855: uvm_test_top.env_h.comp [Comparator Mismatch] 
# adder: input A =        653, input B =       1751, output OUT =       2404
# adder: input A = 00000000000000000000001010001101, input B = 00000000000000000000011011010111, output OUT = 00000000000000000000100101100100
# refmod: input A =         653, input B =        1751, output OUT =       -1098
# refmod: input A = 00000000000000000000001010001101, input B = 00000000000000000000011011010111, output OUT = 11111111111111111111101110110110
# UVM_INFO @ 885: reporter [MISCMP] Miscompare for exp.data: lhs = 'hfffffbb6 : rhs = 'h964
# UVM_INFO @ 885: reporter [MISCMP] 1 Miscompare(s) for object tr@825 vs. exp@617
# UVM_WARNING @ 885: uvm_test_top.env_h.comp [Comparator Mismatch] 
# adder: input A =        768, input B =       7268, output OUT =       8036
# adder: input A = 00000000000000000000001100000000, input B = 00000000000000000001110001100100, output OUT = 00000000000000000001111101100100
# refmod: input A =         768, input B =        7268, output OUT =       -6500
# refmod: input A = 00000000000000000000001100000000, input B = 00000000000000000001110001100100, output OUT = 11111111111111111110011010011100
# UVM_INFO @ 915: reporter [MISCMP] Miscompare for exp.data: lhs = 'hffffe69c : rhs = 'h1f64
# UVM_INFO @ 915: reporter [MISCMP] 1 Miscompare(s) for object tr@825 vs. exp@617
# UVM_WARNING @ 915: uvm_test_top.env_h.comp [Comparator Mismatch] 
# adder: input A =        492, input B =       2399, output OUT =       2891
# adder: input A = 00000000000000000000000111101100, input B = 00000000000000000000100101011111, output OUT = 00000000000000000000101101001011
# refmod: input A =         492, input B =        2399, output OUT =       -1907
# refmod: input A = 00000000000000000000000111101100, input B = 00000000000000000000100101011111, output OUT = 11111111111111111111100010001101
# UVM_INFO @ 945: reporter [MISCMP] Miscompare for exp.data: lhs = 'hfffff88d : rhs = 'hb4b
# UVM_INFO @ 945: reporter [MISCMP] 1 Miscompare(s) for object tr@825 vs. exp@617
# UVM_WARNING @ 945: uvm_test_top.env_h.comp [Comparator Mismatch] 
# adder: input A =        455, input B =        307, output OUT =        762
# adder: input A = 00000000000000000000000111000111, input B = 00000000000000000000000100110011, output OUT = 00000000000000000000001011111010
# refmod: input A =         455, input B =         307, output OUT =         148
# refmod: input A = 00000000000000000000000111000111, input B = 00000000000000000000000100110011, output OUT = 00000000000000000000000010010100
# UVM_INFO @ 975: reporter [MISCMP] Miscompare for exp.data: lhs = 'h94 : rhs = 'h2fa
# UVM_INFO @ 975: reporter [MISCMP] 1 Miscompare(s) for object tr@825 vs. exp@617
# UVM_WARNING @ 975: uvm_test_top.env_h.comp [Comparator Mismatch] 
# adder: input A =        768, input B =       6896, output OUT =       7664
# adder: input A = 00000000000000000000001100000000, input B = 00000000000000000001101011110000, output OUT = 00000000000000000001110111110000
# refmod: input A =         768, input B =        6896, output OUT =       -6128
# refmod: input A = 00000000000000000000001100000000, input B = 00000000000000000001101011110000, output OUT = 11111111111111111110100000010000
# UVM_INFO @ 1005: reporter [MISCMP] Miscompare for exp.data: lhs = 'hffffe810 : rhs = 'h1df0
# UVM_INFO @ 1005: reporter [MISCMP] 1 Miscompare(s) for object tr@825 vs. exp@617
# UVM_WARNING @ 1005: uvm_test_top.env_h.comp [Comparator Mismatch] 
# adder: input A =        833, input B =       6951, output OUT =       7784
# adder: input A = 00000000000000000000001101000001, input B = 00000000000000000001101100100111, output OUT = 00000000000000000001111001101000
# refmod: input A =         833, input B =        6951, output OUT =       -6118
# refmod: input A = 00000000000000000000001101000001, input B = 00000000000000000001101100100111, output OUT = 11111111111111111110100000011010
# UVM_INFO @ 1035: reporter [MISCMP] Miscompare for exp.data: lhs = 'hffffe81a : rhs = 'h1e68
# UVM_INFO @ 1035: reporter [MISCMP] 1 Miscompare(s) for object tr@825 vs. exp@617
# UVM_WARNING @ 1035: uvm_test_top.env_h.comp [Comparator Mismatch] 
# adder: input A =        975, input B =       7812, output OUT =       8787
# adder: input A = 00000000000000000000001111001111, input B = 00000000000000000001111010000100, output OUT = 00000000000000000010001001010011
# refmod: input A =         975, input B =        7812, output OUT =       -6837
# refmod: input A = 00000000000000000000001111001111, input B = 00000000000000000001111010000100, output OUT = 11111111111111111110010101001011
# UVM_INFO @ 1065: reporter [MISCMP] Miscompare for exp.data: lhs = 'hffffe54b : rhs = 'h2253
# UVM_INFO @ 1065: reporter [MISCMP] 1 Miscompare(s) for object tr@825 vs. exp@617
# UVM_WARNING @ 1065: uvm_test_top.env_h.comp [Comparator Mismatch] 
# adder: input A =        332, input B =       1478, output OUT =       1810
# adder: input A = 00000000000000000000000101001100, input B = 00000000000000000000010111000110, output OUT = 00000000000000000000011100010010
# refmod: input A =         332, input B =        1478, output OUT =       -1146
# refmod: input A = 00000000000000000000000101001100, input B = 00000000000000000000010111000110, output OUT = 11111111111111111111101110000110
# UVM_INFO @ 1095: reporter [MISCMP] Miscompare for exp.data: lhs = 'hfffffb86 : rhs = 'h712
# UVM_INFO @ 1095: reporter [MISCMP] 1 Miscompare(s) for object tr@825 vs. exp@617
# UVM_WARNING @ 1095: uvm_test_top.env_h.comp [Comparator Mismatch] 
# adder: input A =        257, input B =       2139, output OUT =       2396
# adder: input A = 00000000000000000000000100000001, input B = 00000000000000000000100001011011, output OUT = 00000000000000000000100101011100
# refmod: input A =         257, input B =        2139, output OUT =       -1882
# refmod: input A = 00000000000000000000000100000001, input B = 00000000000000000000100001011011, output OUT = 11111111111111111111100010100110
# UVM_INFO @ 1125: reporter [MISCMP] Miscompare for exp.data: lhs = 'hfffff8a6 : rhs = 'h95c
# UVM_INFO @ 1125: reporter [MISCMP] 1 Miscompare(s) for object tr@825 vs. exp@617
# UVM_WARNING @ 1125: uvm_test_top.env_h.comp [Comparator Mismatch] 
# adder: input A =        673, input B =       6592, output OUT =       7265
# adder: input A = 00000000000000000000001010100001, input B = 00000000000000000001100111000000, output OUT = 00000000000000000001110001100001
# refmod: input A =         673, input B =        6592, output OUT =       -5919
# refmod: input A = 00000000000000000000001010100001, input B = 00000000000000000001100111000000, output OUT = 11111111111111111110100011100001
# UVM_INFO @ 1155: reporter [MISCMP] Miscompare for exp.data: lhs = 'hffffe8e1 : rhs = 'h1c61
# UVM_INFO @ 1155: reporter [MISCMP] 1 Miscompare(s) for object tr@825 vs. exp@617
# UVM_WARNING @ 1155: uvm_test_top.env_h.comp [Comparator Mismatch] 
# adder: input A =        530, input B =       2318, output OUT =       2848
# adder: input A = 00000000000000000000001000010010, input B = 00000000000000000000100100001110, output OUT = 00000000000000000000101100100000
# refmod: input A =         530, input B =        2318, output OUT =       -1788
# refmod: input A = 00000000000000000000001000010010, input B = 00000000000000000000100100001110, output OUT = 11111111111111111111100100000100
# UVM_INFO @ 1185: reporter [MISCMP] Miscompare for exp.data: lhs = 'hfffff904 : rhs = 'hb20
# UVM_INFO @ 1185: reporter [MISCMP] 1 Miscompare(s) for object tr@825 vs. exp@617
# UVM_WARNING @ 1185: uvm_test_top.env_h.comp [Comparator Mismatch] 
# adder: input A =        841, input B =       3707, output OUT =       4548
# adder: input A = 00000000000000000000001101001001, input B = 00000000000000000000111001111011, output OUT = 00000000000000000001000111000100
# refmod: input A =         841, input B =        3707, output OUT =       -2866
# refmod: input A = 00000000000000000000001101001001, input B = 00000000000000000000111001111011, output OUT = 11111111111111111111010011001110
# UVM_INFO @ 1215: reporter [MISCMP] Miscompare for exp.data: lhs = 'hfffff4ce : rhs = 'h11c4
# UVM_INFO @ 1215: reporter [MISCMP] 1 Miscompare(s) for object tr@825 vs. exp@617
# UVM_WARNING @ 1215: uvm_test_top.env_h.comp [Comparator Mismatch] 
# adder: input A =        606, input B =       5183, output OUT =       5789
# adder: input A = 00000000000000000000001001011110, input B = 00000000000000000001010000111111, output OUT = 00000000000000000001011010011101
# refmod: input A =         606, input B =        5183, output OUT =       -4577
# refmod: input A = 00000000000000000000001001011110, input B = 00000000000000000001010000111111, output OUT = 11111111111111111110111000011111
# UVM_INFO @ 1245: reporter [MISCMP] Miscompare for exp.data: lhs = 'hffffee1f : rhs = 'h169d
# UVM_INFO @ 1245: reporter [MISCMP] 1 Miscompare(s) for object tr@825 vs. exp@617
# UVM_WARNING @ 1245: uvm_test_top.env_h.comp [Comparator Mismatch] 
# adder: input A =        877, input B =       3461, output OUT =       4338
# adder: input A = 00000000000000000000001101101101, input B = 00000000000000000000110110000101, output OUT = 00000000000000000001000011110010
# refmod: input A =         877, input B =        3461, output OUT =       -2584
# refmod: input A = 00000000000000000000001101101101, input B = 00000000000000000000110110000101, output OUT = 11111111111111111111010111101000
# UVM_INFO @ 1275: reporter [MISCMP] Miscompare for exp.data: lhs = 'hfffff5e8 : rhs = 'h10f2
# UVM_INFO @ 1275: reporter [MISCMP] 1 Miscompare(s) for object tr@825 vs. exp@617
# UVM_WARNING @ 1275: uvm_test_top.env_h.comp [Comparator Mismatch] 
# adder: input A =        144, input B =         38, output OUT =        182
# adder: input A = 00000000000000000000000010010000, input B = 00000000000000000000000000100110, output OUT = 00000000000000000000000010110110
# refmod: input A =         144, input B =          38, output OUT =         106
# refmod: input A = 00000000000000000000000010010000, input B = 00000000000000000000000000100110, output OUT = 00000000000000000000000001101010
# UVM_INFO @ 1305: reporter [MISCMP] Miscompare for exp.data: lhs = 'h6a : rhs = 'hb6
# UVM_INFO @ 1305: reporter [MISCMP] 1 Miscompare(s) for object tr@825 vs. exp@617
# UVM_WARNING @ 1305: uvm_test_top.env_h.comp [Comparator Mismatch] 
# adder: input A =        392, input B =       3276, output OUT =       3668
# adder: input A = 00000000000000000000000110001000, input B = 00000000000000000000110011001100, output OUT = 00000000000000000000111001010100
# refmod: input A =         392, input B =        3276, output OUT =       -2884
# refmod: input A = 00000000000000000000000110001000, input B = 00000000000000000000110011001100, output OUT = 11111111111111111111010010111100
# UVM_INFO @ 1335: reporter [MISCMP] Miscompare for exp.data: lhs = 'hfffff4bc : rhs = 'he54
# UVM_INFO @ 1335: reporter [MISCMP] 1 Miscompare(s) for object tr@825 vs. exp@617
