test fpu/sim/transcript
# //  Questa Sim-64
# //  Version 10.7c linux_x86_64 Aug 17 2018
# //
# //  Copyright 1991-2018 Mentor Graphics Corporation
# //  All Rights Reserved.
# //
# //  QuestaSim and its associated documentation contain trade
# //  secrets and commercial or financial information that are the property of
# //  Mentor Graphics Corporation and are privileged, confidential,
# //  and exempt from disclosure under the Freedom of Information Act,
# //  5 U.S.C. Section 552. Furthermore, this information
# //  is prohibited from disclosure under the Trade Secrets Act,
# //  18 U.S.C. Section 1905.
# //
# vsim top 
# Start time: 16:28:27 on May 28,2021
# ** Note: (vsim-3813) Design is being optimized due to module recompilation...
# ** Warning: ../tb/monitor.sv(50): (vopt-2240) Treating stand-alone use of function 'begin_tr' as an implicit VOID cast.
# ** Warning: ../tb/monitor_out.sv(48): (vopt-2240) Treating stand-alone use of function 'begin_tr' as an implicit VOID cast.
# Loading sv_std.std
# Loading mtiUvm.uvm_pkg
# Loading work.top_sv_unit(fast)
# Loading work.top(fast)
# Loading work.DUT(fast)
# Loading mtiUvm.questa_uvm_pkg(fast)
# Loading work.dut_if(fast)
# Loading std.standard
# Loading std.textio(body)
# Loading ieee.std_logic_1164(body)
# Loading ieee.std_logic_arith(body)
# Loading work.fpmul(pipeline)#1
# Loading work.fpmul_stage1(struct)#1
# Loading work.unpackfp(unpackfp)#1
# Loading work.fpmul_stage2(struct)#1
# Loading ieee.std_logic_unsigned(body)
# Loading work.mbe(structure)#1
# Loading work.dadda_tree(structure)#1
# Loading work.fpmul_stage3(struct)#1
# Loading work.fpnormalize(fpnormalize)#1
# Loading work.fpround(fpround)#1
# Loading work.fpmul_stage4(struct)#1
# Loading work.packfp(packfp)#1
# ** Warning: (vsim-3839) Variable '/top/out/data', driven via a port connection, is multiply driven. See ../src/DUT.sv(3).
#    Time: 0 ns  Iteration: 0  Instance: /top/fp_mul File: ../src/DUT.sv Line: 9
# ** Warning: (vsim-3764) Stand-alone call to function 'begin_tr' treated as implicit void cast.
#    Time: 0 ns  Iteration: 0  Region: /top_sv_unit::driver File: ../tb/driver.sv Line: 68
# Loading /software/mentor/questa10.7c/questasim/uvm-1.1d/linux_x86_64/uvm_dpi.so
run 4 us
# ----------------------------------------------------------------
# UVM-1.1d
# (C) 2007-2013 Mentor Graphics Corporation
# (C) 2007-2013 Cadence Design Systems, Inc.
# (C) 2006-2013 Synopsys, Inc.
# (C) 2011-2013 Cypress Semiconductor Corp.
# ----------------------------------------------------------------
# 
#   ***********       IMPORTANT RELEASE NOTES         ************
# 
#   You are using a version of the UVM library that has been compiled
#   with `UVM_NO_DEPRECATED undefined.
#   See http://www.eda.org/svdb/view.php?id=3313 for more details.
# 
#   You are using a version of the UVM library that has been compiled
#   with `UVM_OBJECT_MUST_HAVE_CONSTRUCTOR undefined.
#   See http://www.eda.org/svdb/view.php?id=3770 for more details.
# 
#       (Specify +UVM_NO_RELNOTES to turn off this notice)
# 
# UVM_INFO verilog_src/questa_uvm_pkg-1.2/src/questa_uvm_pkg.sv(215) @ 0: reporter [Questa UVM] QUESTA_UVM-1.2.3
# UVM_INFO verilog_src/questa_uvm_pkg-1.2/src/questa_uvm_pkg.sv(216) @ 0: reporter [Questa UVM]  questa_uvm::init(+struct)
# ** Warning: There is an 'U'|'X'|'W'|'Z'|'-' in an arithmetic operand, the result will be 'X'(es).
#    Time: 0 ns  Iteration: 0  Instance: /top/fp_mul/FPmul_under_test/I3/I11
# ** Warning: There is an 'U'|'X'|'W'|'Z'|'-' in an arithmetic operand, the result will be 'X'(es).
#    Time: 0 ns  Iteration: 0  Instance: /top/fp_mul/FPmul_under_test/I3/I11
# ** Warning: There is an 'U'|'X'|'W'|'Z'|'-' in an arithmetic operand, the result will be 'X'(es).
#    Time: 0 ns  Iteration: 0  Instance: /top/fp_mul/FPmul_under_test/I2/MBE_dadda_tree_multiplier/sum_dadda
# ** Warning: There is an 'U'|'X'|'W'|'Z'|'-' in an arithmetic operand, the result will be 'X'(es).
#    Time: 0 ns  Iteration: 0  Instance: /top/fp_mul/FPmul_under_test/I2/MBE_dadda_tree_multiplier/sum_dadda
# ** Warning: There is an 'U'|'X'|'W'|'Z'|'-' in an arithmetic operand, the result will be 'X'(es).
#    Time: 0 ns  Iteration: 0  Instance: /top/fp_mul/FPmul_under_test/I2
# ** Warning: There is an 'U'|'X'|'W'|'Z'|'-' in an arithmetic operand, the result will be 'X'(es).
#    Time: 0 ns  Iteration: 0  Instance: /top/fp_mul/FPmul_under_test/I2
# ** Warning: There is an 'U'|'X'|'W'|'Z'|'-' in an arithmetic operand, the result will be 'X'(es).
#    Time: 0 ns  Iteration: 0  Instance: /top/fp_mul/FPmul_under_test/I2
# ** Warning: There is an 'U'|'X'|'W'|'Z'|'-' in an arithmetic operand, the result will be 'X'(es).
#    Time: 0 ns  Iteration: 0  Instance: /top/fp_mul/FPmul_under_test/I2
# ** Warning: There is an 'U'|'X'|'W'|'Z'|'-' in an arithmetic operand, the result will be 'X'(es).
#    Time: 0 ns  Iteration: 0  Instance: /top/fp_mul/FPmul_under_test/I2
# UVM_INFO @ 0: reporter [RNTST] Running test simple_test...
# ** Warning: There is an 'U'|'X'|'W'|'Z'|'-' in an arithmetic operand, the result will be 'X'(es).
#    Time: 0 ns  Iteration: 1  Instance: /top/fp_mul/FPmul_under_test/I2
# ** Warning: There is an 'U'|'X'|'W'|'Z'|'-' in an arithmetic operand, the result will be 'X'(es).
#    Time: 0 ns  Iteration: 1  Instance: /top/fp_mul/FPmul_under_test/I2
# ** Warning: There is an 'U'|'X'|'W'|'Z'|'-' in an arithmetic operand, the result will be 'X'(es).
#    Time: 0 ns  Iteration: 1  Instance: /top/fp_mul/FPmul_under_test/I2
# ** Warning: There is an 'U'|'X'|'W'|'Z'|'-' in an arithmetic operand, the result will be 'X'(es).
#    Time: 0 ns  Iteration: 1  Instance: /top/fp_mul/FPmul_under_test/I2
# ** Warning: There is an 'U'|'X'|'W'|'Z'|'-' in an arithmetic operand, the result will be 'X'(es).
#    Time: 0 ns  Iteration: 1  Instance: /top/fp_mul/FPmul_under_test/I2/MBE_dadda_tree_multiplier/sum_dadda
# ** Warning: There is an 'U'|'X'|'W'|'Z'|'-' in an arithmetic operand, the result will be 'X'(es).
#    Time: 0 ns  Iteration: 1  Instance: /top/fp_mul/FPmul_under_test/I2/MBE_dadda_tree_multiplier/sum_dadda
# ** Warning: There is an 'U'|'X'|'W'|'Z'|'-' in an arithmetic operand, the result will be 'X'(es).
#    Time: 0 ns  Iteration: 7  Instance: /top/fp_mul/FPmul_under_test/I2/MBE_dadda_tree_multiplier/sum_dadda
# ** Warning: There is an 'U'|'X'|'W'|'Z'|'-' in an arithmetic operand, the result will be 'X'(es).
#    Time: 0 ns  Iteration: 7  Instance: /top/fp_mul/FPmul_under_test/I2/MBE_dadda_tree_multiplier/sum_dadda
# ** Warning: There is an 'U'|'X'|'W'|'Z'|'-' in an arithmetic operand, the result will be 'X'(es).
#    Time: 5 ns  Iteration: 12  Instance: /top/fp_mul/FPmul_under_test/I2/MBE_dadda_tree_multiplier/sum_dadda
# ** Warning: There is an 'U'|'X'|'W'|'Z'|'-' in an arithmetic operand, the result will be 'X'(es).
#    Time: 5 ns  Iteration: 12  Instance: /top/fp_mul/FPmul_under_test/I2/MBE_dadda_tree_multiplier/sum_dadda
# ** Warning: There is an 'U'|'X'|'W'|'Z'|'-' in an arithmetic operand, the result will be 'X'(es).
#    Time: 15 ns  Iteration: 2  Instance: /top/fp_mul/FPmul_under_test/I2
# ** Warning: There is an 'U'|'X'|'W'|'Z'|'-' in an arithmetic operand, the result will be 'X'(es).
#    Time: 15 ns  Iteration: 2  Instance: /top/fp_mul/FPmul_under_test/I2
# ** Warning: There is an 'U'|'X'|'W'|'Z'|'-' in an arithmetic operand, the result will be 'X'(es).
#    Time: 15 ns  Iteration: 2  Instance: /top/fp_mul/FPmul_under_test/I2
# ** Warning: There is an 'U'|'X'|'W'|'Z'|'-' in an arithmetic operand, the result will be 'X'(es).
#    Time: 15 ns  Iteration: 2  Instance: /top/fp_mul/FPmul_under_test/I2
# ** Warning: There is an 'U'|'X'|'W'|'Z'|'-' in an arithmetic operand, the result will be 'X'(es).
#    Time: 15 ns  Iteration: 10  Instance: /top/fp_mul/FPmul_under_test/I2/MBE_dadda_tree_multiplier/sum_dadda
# ** Warning: There is an 'U'|'X'|'W'|'Z'|'-' in an arithmetic operand, the result will be 'X'(es).
#    Time: 15 ns  Iteration: 10  Instance: /top/fp_mul/FPmul_under_test/I2/MBE_dadda_tree_multiplier/sum_dadda
# ** Warning: There is an 'U'|'X'|'W'|'Z'|'-' in an arithmetic operand, the result will be 'X'(es).
#    Time: 25 ns  Iteration: 3  Instance: /top/fp_mul/FPmul_under_test/I3/I11
# ** Warning: There is an 'U'|'X'|'W'|'Z'|'-' in an arithmetic operand, the result will be 'X'(es).
#    Time: 25 ns  Iteration: 3  Instance: /top/fp_mul/FPmul_under_test/I3/I11
# FPmul: input A = 0.000000, input B = 0.000000, output OUT = 0.000000
# FPmul: input A = 00100111101100101001001100101111, input B = 00100000101010000000010000010011, output OUT = xxxxxxxxxxxxxxxxxxxxxxxxxxxxxxxx
# refmod: input A = 0.000000, input B = 0.000000, output OUT = 0.000000
# refmod: input A = 00100111101100101001001100101111, input B = 00100000101010000000010000010011, output OUT = 00000000000000000000000000000000
# refmod output for comparison: 00000000000000000000000000000000 	 (0.000000)
# DUT output for comparison: 00000000000000000000000000000000 	 (0.000000)
# UVM_INFO @ 45: uvm_test_top.env_h.comp [Comparator Match] 
# FPmul: input A = 21666383872.000000, input B = 0.000000, output OUT = 0.000000
# FPmul: input A = 01010000101000010110110101011001, input B = 00110100110101100000010100011011, output OUT = xxxxxxxxxxxxxxxxxxxxxxxxxxxxxxxx
# refmod: input A = 21666383872.000000, input B = 0.000000, output OUT = 0.000000
# refmod: input A = 01010000101000010110110101011001, input B = 00110100110101100000010100011011, output OUT = 00000000000000000000000000000000
# refmod output for comparison: 00000000000000000000000000000000 	 (0.000000)
# DUT output for comparison: 00000000000000000000000000000000 	 (0.000000)
# UVM_INFO @ 75: uvm_test_top.env_h.comp [Comparator Match] 
# FPmul: input A = 0.000000, input B = -517386.781250, output OUT = 0.000000
# FPmul: input A = 00101000001100011000101111011011, input B = 11001000111111001010000101011001, output OUT = 00001000111010100110011011011101
# refmod: input A = 0.000000, input B = -517386.781250, output OUT = -0.000000
# refmod: input A = 00101000001100011000101111011011, input B = 11001000111111001010000101011001, output OUT = 00001000111010100110011011011101
# refmod output for comparison: 00001000111010100110011011011101 	 (0.000000)
# DUT output for comparison: 00001000111010100110011011011101 	 (0.000000)
# UVM_INFO @ 105: uvm_test_top.env_h.comp [Comparator Match] 
# FPmul: input A = 368.587891, input B = -119233136860069888.000000, output OUT = 8637.157227
# FPmul: input A = 01000011101110000100101101000000, input B = 11011011110100111100110011110100, output OUT = 01000110000001101111010010100001
# refmod: input A = 368.587891, input B = -119233136860069888.000000, output OUT = -43947890407855095808.000000
# refmod: input A = 01000011101110000100101101000000, input B = 11011011110100111100110011110100, output OUT = 01000110000001101111010010100001
# refmod output for comparison: 01000110000001101111010010100001 	 (8637.157227)
# DUT output for comparison: 01000110000001101111010010100001 	 (8637.157227)
# UVM_INFO @ 135: uvm_test_top.env_h.comp [Comparator Match] 
# FPmul: input A = -427.155792, input B = -0.040846, output OUT = -0.000000
# FPmul: input A = 11000011110101011001001111110001, input B = 10111101001001110100111001110100, output OUT = 10110001101011110011010110010010
# refmod: input A = -427.155792, input B = -0.040846, output OUT = 17.447735
# refmod: input A = 11000011110101011001001111110001, input B = 10111101001001110100111001110100, output OUT = 10110001101011110011010110010010
# refmod output for comparison: 10110001101011110011010110010010 	 (-0.000000)
# DUT output for comparison: 10110001101011110011010110010010 	 (-0.000000)
# UVM_INFO @ 165: uvm_test_top.env_h.comp [Comparator Match] 
# FPmul: input A = -43320168448.000000, input B = 119371871551488.000000, output OUT = -43947888780532252672.000000
# FPmul: input A = 11010001001000010110000101010101, input B = 01010110110110010010001011011100, output OUT = 11100000000110000111100110010001
# refmod: input A = -43320168448.000000, input B = 119371871551488.000000, output OUT = -5171209583563479265050624.000000
# refmod: input A = 11010001001000010110000101010101, input B = 01010110110110010010001011011100, output OUT = 11100000000110000111100110010001
# refmod output for comparison: 11100000000110000111100110010001 	 (-43947888780532252672.000000)
# DUT output for comparison: 11100000000110000111100110010001 	 (-43947888780532252672.000000)
# UVM_INFO @ 195: uvm_test_top.env_h.comp [Comparator Match] 
# FPmul: input A = 0.000000, input B = -29840163609772032.000000, output OUT = 17.447735
# FPmul: input A = 00101101011101111001011111111001, input B = 11011010110101000000011011110001, output OUT = 01000001100010111001010011110110
# refmod: input A = 0.000000, input B = -29840163609772032.000000, output OUT = -419972.526600
# refmod: input A = 00101101011101111001011111111001, input B = 11011010110101000000011011110001, output OUT = 01000001100010111001010011110110
# refmod output for comparison: 01000001100010111001010011110110 	 (17.447735)
# DUT output for comparison: 01000001100010111001010011110110 	 (17.447735)
# UVM_INFO @ 225: uvm_test_top.env_h.comp [Comparator Match] 
# FPmul: input A = -0.000000, input B = -0.000000, output OUT = -5171209777367384506499072.000000
# FPmul: input A = 10100101001100011010000001100111, input B = 10110000001011110101110010100011, output OUT = 11101000100010001110000101111011
# refmod: input A = -0.000000, input B = -0.000000, output OUT = 0.000000
# refmod: input A = 10100101001100011010000001100111, input B = 10110000001011110101110010100011, output OUT = 11101000100010001110000101111011
# refmod output for comparison: 11101000100010001110000101111011 	 (-5171209777367384506499072.000000)
# DUT output for comparison: 11101000100010001110000101111011 	 (-5171209777367384506499072.000000)
# UVM_INFO @ 255: uvm_test_top.env_h.comp [Comparator Match] 
# FPmul: input A = -0.000000, input B = 0.000000, output OUT = -419972.531250
# FPmul: input A = 10101001000010010000111100100001, input B = 00101010111001100001010101000010, output OUT = 11001000110011010001000010010001
# refmod: input A = -0.000000, input B = 0.000000, output OUT = -0.000000
# refmod: input A = 10101001000010010000111100100001, input B = 00101010111001100001010101000010, output OUT = 11001000110011010001000010010001
# refmod output for comparison: 11001000110011010001000010010001 	 (-419972.531250)
# DUT output for comparison: 11001000110011010001000010010001 	 (-419972.531250)
# UVM_INFO @ 285: uvm_test_top.env_h.comp [Comparator Match] 
# FPmul: input A = -0.002805, input B = 1144063189319680.000000, output OUT = 0.000000
# FPmul: input A = 10111011001101111100101111001111, input B = 01011000100000100001000010011111, output OUT = 00010101111100110101100111011010
# refmod: input A = -0.002805, input B = 1144063189319680.000000, output OUT = -3208532464684.531250
# refmod: input A = 10111011001101111100101111001111, input B = 01011000100000100001000010011111, output OUT = 00010101111100110101100111011010
# refmod output for comparison: 00010101111100110101100111011010 	 (0.000000)
# DUT output for comparison: 00010101111100110101100111011010 	 (0.000000)
# UVM_INFO @ 315: uvm_test_top.env_h.comp [Comparator Match] 
# FPmul: input A = 27.075583, input B = 0.000061, output OUT = -0.000000
# FPmul: input A = 01000001110110001001101011001011, input B = 00111000011111110110100101011111, output OUT = 10010100011101100101110111110010
# refmod: input A = 27.075583, input B = 0.000061, output OUT = 0.001649
# refmod: input A = 01000001110110001001101011001011, input B = 00111000011111110110100101011111, output OUT = 10010100011101100101110111110010
# refmod output for comparison: 10010100011101100101110111110010 	 (-0.000000)
# DUT output for comparison: 10010100011101100101110111110010 	 (-0.000000)
# UVM_INFO @ 345: uvm_test_top.env_h.comp [Comparator Match] 
# FPmul: input A = 0.000000, input B = -0.000202, output OUT = -3208532459520.000000
# FPmul: input A = 00110100010101001111101100111010, input B = 10111001010101000000010100010101, output OUT = 11010100001110101100001011011100
# refmod: input A = 0.000000, input B = -0.000202, output OUT = -0.000000
# refmod: input A = 00110100010101001111101100111010, input B = 10111001010101000000010100010101, output OUT = 11010100001110101100001011011100
# refmod output for comparison: 11010100001110101100001011011100 	 (-3208532459520.000000)
# DUT output for comparison: 11010100001110101100001011011100 	 (-3208532459520.000000)
# UVM_INFO @ 375: uvm_test_top.env_h.comp [Comparator Match] 
# FPmul: input A = 8093899692179456.000000, input B = -528241429349138432.000000, output OUT = 0.001649
# FPmul: input A = 01011001111001100000101011011111, input B = 11011100111010101001011000011001, output OUT = 00111010110110000001101101011000
# refmod: input A = 8093899692179456.000000, input B = -528241429349138432.000000, output OUT = -4275533142405427409175441930452992.000000
# refmod: input A = 01011001111001100000101011011111, input B = 11011100111010101001011000011001, output OUT = 00111010110110000001101101011000
# refmod output for comparison: 00111010110110000001101101011000 	 (0.001649)
# DUT output for comparison: 00111010110110000001101101011000 	 (0.001649)
# UVM_INFO @ 405: uvm_test_top.env_h.comp [Comparator Match] 
# FPmul: input A = 1473.050049, input B = -5166113751040.000000, output OUT = -0.000000
# FPmul: input A = 01000100101110000010000110011010, input B = 11010100100101100101101010001100, output OUT = 10101110001100000110010001000110
# refmod: input A = 1473.050049, input B = -5166113751040.000000, output OUT = -7609944113221120.000000
# refmod: input A = 01000100101110000010000110011010, input B = 11010100100101100101101010001100, output OUT = 10101110001100000110010001000110
# refmod output for comparison: 10101110001100000110010001000110 	 (-0.000000)
# DUT output for comparison: 10101110001100000110010001000110 	 (-0.000000)
# UVM_INFO @ 435: uvm_test_top.env_h.comp [Comparator Match] 
# FPmul: input A = -4640999473152.000000, input B = -101293160.000000, output OUT = -4275533244286813375017369215172608.000000
# FPmul: input A = 11010100100001110001001000100100, input B = 11001100110000010011001110001101, output OUT = 11110111010100101100110011010001
# refmod: input A = -4640999473152.000000, input B = -101293160.000000, output OUT = 470101502193901240320.000000
# refmod: input A = 11010100100001110001001000100100, input B = 11001100110000010011001110001101, output OUT = 11110111010100101100110011010001
# refmod output for comparison: 11110111010100101100110011010001 	 (-4275533244286813375017369215172608.000000)
# DUT output for comparison: 11110111010100101100110011010001 	 (-4275533244286813375017369215172608.000000)
# UVM_INFO @ 465: uvm_test_top.env_h.comp [Comparator Match] 
# FPmul: input A = 54700418269184.000000, input B = 43306928.000000, output OUT = -7609943851008000.000000
# FPmul: input A = 01010110010001101111111110111100, input B = 01001100001001010011001111101100, output OUT = 11011001110110000100100110100001
# refmod: input A = 54700418269184.000000, input B = 43306928.000000, output OUT = 2368907075553436106752.000000
# refmod: input A = 01010110010001101111111110111100, input B = 01001100001001010011001111101100, output OUT = 11011001110110000100100110100001
# refmod output for comparison: 11011001110110000100100110100001 	 (-7609943851008000.000000)
# DUT output for comparison: 11011001110110000100100110100001 	 (-7609943851008000.000000)
# UVM_INFO @ 495: uvm_test_top.env_h.comp [Comparator Match] 
# FPmul: input A = -0.000000, input B = 0.000000, output OUT = 470101491703628169216.000000
# FPmul: input A = 10101010010000010011111101000110, input B = 00110100110011011110110100110000, output OUT = 01100001110010111101111111000000
# refmod: input A = -0.000000, input B = 0.000000, output OUT = -0.000000
# refmod: input A = 10101010010000010011111101000110, input B = 00110100110011011110110100110000, output OUT = 01100001110010111101111111000000
# refmod output for comparison: 01100001110010111101111111000000 	 (470101491703628169216.000000)
# DUT output for comparison: 01100001110010111101111111000000 	 (470101491703628169216.000000)
# UVM_INFO @ 525: uvm_test_top.env_h.comp [Comparator Match] 
# FPmul: input A = -0.013024, input B = -0.000000, output OUT = 2368907196270739718144.000000
# FPmul: input A = 10111100010101010110001000010011, input B = 10101110100001110001100111110000, output OUT = 01100011000000000110101100110001
# refmod: input A = -0.013024, input B = -0.000000, output OUT = 0.000000
# refmod: input A = 10111100010101010110001000010011, input B = 10101110100001110001100111110000, output OUT = 01100011000000000110101100110001
# refmod output for comparison: 01100011000000000110101100110001 	 (2368907196270739718144.000000)
# DUT output for comparison: 01100011000000000110101100110001 	 (2368907196270739718144.000000)
# UVM_INFO @ 555: uvm_test_top.env_h.comp [Comparator Match] 
# FPmul: input A = 30049115832320.000000, input B = 705014530048.000000, output OUT = -0.000000
# FPmul: input A = 01010101110110101010001011010111, input B = 01010011001001000010011000100100, output OUT = 10011111100110110111001010110111
# refmod: input A = 30049115832320.000000, input B = 705014530048.000000, output OUT = 21185063276881001169551360.000000
# refmod: input A = 01010101110110101010001011010111, input B = 01010011001001000010011000100100, output OUT = 10011111100110110111001010110111
# refmod output for comparison: 10011111100110110111001010110111 	 (-0.000000)
# DUT output for comparison: 10011111100110110111001010110111 	 (-0.000000)
# UVM_INFO @ 585: uvm_test_top.env_h.comp [Comparator Match] 
# FPmul: input A = 1978.525146, input B = -0.000000, output OUT = 0.000000
# FPmul: input A = 01000100111101110101000011001110, input B = 10100111000011000111001000100100, output OUT = 00101011011000010011100010101101
# refmod: input A = 1978.525146, input B = -0.000000, output OUT = -0.000000
# refmod: input A = 01000100111101110101000011001110, input B = 10100111000011000111001000100100, output OUT = 00101011011000010011100010101101
# refmod output for comparison: 00101011011000010011100010101101 	 (0.000000)
# DUT output for comparison: 00101011011000010011100010101101 	 (0.000000)
# UVM_INFO @ 615: uvm_test_top.env_h.comp [Comparator Match] 
# FPmul: input A = 6897467295531008.000000, input B = -0.000000, output OUT = 21185064080202338364555264.000000
# FPmul: input A = 01011001110001000000100110101110, input B = 10100011110010101110110100011110, output OUT = 01101001100011000011000011100101
# refmod: input A = 6897467295531008.000000, input B = -0.000000, output OUT = -0.151753
# refmod: input A = 01011001110001000000100110101110, input B = 10100011110010101110110100011110, output OUT = 01101001100011000011000011100101
# refmod output for comparison: 01101001100011000011000011100101 	 (21185064080202338364555264.000000)
# DUT output for comparison: 01101001100011000011000011100101 	 (21185064080202338364555264.000000)
# UVM_INFO @ 645: uvm_test_top.env_h.comp [Comparator Match] 
# FPmul: input A = -37070.902344, input B = 0.000000, output OUT = -0.000000
# FPmul: input A = 11000111000100001100111011100111, input B = 00110000110111110011010000000110, output OUT = 10101100100001111010111001110101
# refmod: input A = -37070.902344, input B = 0.000000, output OUT = -0.000060
# refmod: input A = 11000111000100001100111011100111, input B = 00110000110111110011010000000110, output OUT = 10101100100001111010111001110101
# refmod output for comparison: 10101100100001111010111001110101 	 (-0.000000)
# DUT output for comparison: 10101100100001111010111001110101 	 (-0.000000)
# UVM_INFO @ 675: uvm_test_top.env_h.comp [Comparator Match] 
# FPmul: input A = -203518279451410432.000000, input B = 5646494203904.000000, output OUT = -0.151753
# FPmul: input A = 11011100001101001100001010110011, input B = 01010100101001000101010110101001, output OUT = 10111110000110110110010100110111
# refmod: input A = -203518279451410432.000000, input B = 5646494203904.000000, output OUT = -1149164785310903549085800726528.000000
# refmod: input A = 11011100001101001100001010110011, input B = 01010100101001000101010110101001, output OUT = 10111110000110110110010100110111
# refmod output for comparison: 10111110000110110110010100110111 	 (-0.151753)
# DUT output for comparison: 10111110000110110110010100110111 	 (-0.151753)
# UVM_INFO @ 705: uvm_test_top.env_h.comp [Comparator Match] 
# FPmul: input A = -3794388514053816320.000000, input B = 7908022.500000, output OUT = -0.000060
# FPmul: input A = 11011110010100101010000110000001, input B = 01001010111100010101010101101101, output OUT = 10111000011111001000001101010001
# refmod: input A = -3794388514053816320.000000, input B = 7908022.500000, output OUT = -30006109742879145669427200.000000
# refmod: input A = 11011110010100101010000110000001, input B = 01001010111100010101010101101101, output OUT = 10111000011111001000001101010001
# refmod output for comparison: 10111000011111001000001101010001 	 (-0.000060)
# DUT output for comparison: 10111000011111001000001101010001 	 (-0.000060)
# UVM_INFO @ 735: uvm_test_top.env_h.comp [Comparator Match] 
# FPmul: input A = -1989943492608.000000, input B = -0.000000, output OUT = -1149164762900028032969955344384.000000
# FPmul: input A = 11010011111001111010100011110000, input B = 10100010101110110011110100100011, output OUT = 11110001011010000001001001101101
# refmod: input A = -1989943492608.000000, input B = -0.000000, output OUT = 0.000010
# refmod: input A = 11010011111001111010100011110000, input B = 10100010101110110011110100100011, output OUT = 11110001011010000001001001101101
# refmod output for comparison: 11110001011010000001001001101101 	 (-1149164762900028032969955344384.000000)
# DUT output for comparison: 11110001011010000001001001101101 	 (-1149164762900028032969955344384.000000)
# UVM_INFO @ 765: uvm_test_top.env_h.comp [Comparator Match] 
# FPmul: input A = -152874096.000000, input B = -538661312.000000, output OUT = -30006110322966499638116352.000000
# FPmul: input A = 11001101000100011100101011000111, input B = 11001110000000000110110101000111, output OUT = 11101001110001101001000001010100
# refmod: input A = -152874096.000000, input B = -538661312.000000, output OUT = 82347361122173952.000000
# refmod: input A = 11001101000100011100101011000111, input B = 11001110000000000110110101000111, output OUT = 11101001110001101001000001010100
# refmod output for comparison: 11101001110001101001000001010100 	 (-30006110322966499638116352.000000)
# DUT output for comparison: 11101001110001101001000001010100 	 (-30006110322966499638116352.000000)
# UVM_INFO @ 795: uvm_test_top.env_h.comp [Comparator Match] 
# FPmul: input A = -21438369792.000000, input B = -0.000000, output OUT = 0.000010
# FPmul: input A = 11010000100111111011101001110010, input B = 10101111111100110000101011010111, output OUT = 00110111001010010110111110111010
# refmod: input A = -21438369792.000000, input B = -0.000000, output OUT = 9.477720
# refmod: input A = 11010000100111111011101001110010, input B = 10101111111100110000101011010111, output OUT = 00110111001010010110111110111010
# refmod output for comparison: 00110111001010010110111110111010 	 (0.000010)
# DUT output for comparison: 00110111001010010110111110111010 	 (0.000010)
# UVM_INFO @ 825: uvm_test_top.env_h.comp [Comparator Match] 
# FPmul: input A = -0.000000, input B = 0.000000, output OUT = 82347365016535040.000000
# FPmul: input A = 10101000000101111110011000101110, input B = 00100011110001110001100010000001, output OUT = 01011011100100100100011100111111
# refmod: input A = -0.000000, input B = 0.000000, output OUT = -0.000000
# refmod: input A = 10101000000101111110011000101110, input B = 00100011110001110001100010000001, output OUT = 01011011100100100100011100111111
# refmod output for comparison: 01011011100100100100011100111111 	 (82347365016535040.000000)
# DUT output for comparison: 01011011100100100100011100111111 	 (82347365016535040.000000)
# UVM_INFO @ 855: uvm_test_top.env_h.comp [Comparator Match] 
# FPmul: input A = -1519624987705606144.000000, input B = -0.000225, output OUT = 9.477720
# FPmul: input A = 11011101101010001011011001010111, input B = 10111001011011000000101111011100, output OUT = 01000001000101111010010010111110
# refmod: input A = -1519624987705606144.000000, input B = -0.000225, output OUT = 342084784283528.000000
# refmod: input A = 11011101101010001011011001010111, input B = 10111001011011000000101111011100, output OUT = 01000001000101111010010010111110
# refmod output for comparison: 01000001000101111010010010111110 	 (9.477720)
# DUT output for comparison: 01000001000101111010010010111110 	 (9.477720)
# UVM_INFO @ 885: uvm_test_top.env_h.comp [Comparator Match] 
# FPmul: input A = 4629490176.000000, input B = 4242538752.000000, output OUT = -0.000000
# FPmul: input A = 01001111100010011111100000110101, input B = 01001111011111001110000000000001, output OUT = 10001100011011000100010011110000
# refmod: input A = 4629490176.000000, input B = 4242538752.000000, output OUT = 19640791473683300352.000000
# refmod: input A = 01001111100010011111100000110101, input B = 01001111011111001110000000000001, output OUT = 10001100011011000100010011110000
# refmod output for comparison: 10001100011011000100010011110000 	 (-0.000000)
# DUT output for comparison: 10001100011011000100010011110000 	 (-0.000000)
# UVM_INFO @ 915: uvm_test_top.env_h.comp [Comparator Match] 
# FPmul: input A = 0.000008, input B = 0.000109, output OUT = 342084783439872.000000
# FPmul: input A = 00110111000010010011110010010011, input B = 00111000111001010101011100000111, output OUT = 01010111100110111000111111101001
# refmod: input A = 0.000008, input B = 0.000109, output OUT = 0.000000
# refmod: input A = 00110111000010010011110010010011, input B = 00111000111001010101011100000111, output OUT = 01010111100110111000111111101001
# refmod output for comparison: 01010111100110111000111111101001 	 (342084783439872.000000)
# DUT output for comparison: 01010111100110111000111111101001 	 (342084783439872.000000)
# UVM_INFO @ 945: uvm_test_top.env_h.comp [Comparator Match] 
# FPmul: input A = -0.000000, input B = 0.000000, output OUT = 19640791711241732096.000000
# FPmul: input A = 10101000000100000111000011001100, input B = 00100001000110110010110010010110, output OUT = 01011111100010000100100100001110
# refmod: input A = -0.000000, input B = 0.000000, output OUT = -0.000000
# refmod: input A = 10101000000100000111000011001100, input B = 00100001000110110010110010010110, output OUT = 01011111100010000100100100001110
# refmod output for comparison: 01011111100010000100100100001110 	 (19640791711241732096.000000)
# DUT output for comparison: 01011111100010000100100100001110 	 (19640791711241732096.000000)
# UVM_INFO @ 975: uvm_test_top.env_h.comp [Comparator Match] 
# FPmul: input A = -6548.955566, input B = 0.000000, output OUT = 0.000000
# FPmul: input A = 11000101110011001010011110100101, input B = 00100010000110111001000000110011, output OUT = 00110000011101011110001110101110
# refmod: input A = -6548.955566, input B = 0.000000, output OUT = -0.000000
# refmod: input A = 11000101110011001010011110100101, input B = 00100010000110111001000000110011, output OUT = 00110000011101011110001110101110
# refmod output for comparison: 00110000011101011110001110101110 	 (0.000000)
# DUT output for comparison: 00110000011101011110001110101110 	 (0.000000)
# UVM_INFO @ 1005: uvm_test_top.env_h.comp [Comparator Match] 
# FPmul: input A = 0.012863, input B = -84911.679688, output OUT = -0.000000
# FPmul: input A = 00111100010100101011110111000010, input B = 11000111101001011101011111010111, output OUT = 10001001101011110001101011100111
# refmod: input A = 0.012863, input B = -84911.679688, output OUT = -1092.187060
# refmod: input A = 00111100010100101011110111000010, input B = 11000111101001011101011111010111, output OUT = 10001001101011110001101011100111
# refmod output for comparison: 10001001101011110001101011100111 	 (-0.000000)
# DUT output for comparison: 10001001101011110001101011100111 	 (-0.000000)
# UVM_INFO @ 1035: uvm_test_top.env_h.comp [Comparator Match] 
# FPmul: input A = -390250692608.000000, input B = -0.799454, output OUT = -0.000000
# FPmul: input A = 11010010101101011011100110000010, input B = 10111111010011001010100100001001, output OUT = 10101000011110001011100110010000
# refmod: input A = -390250692608.000000, input B = -0.799454, output OUT = 311987583275.785156
# refmod: input A = 11010010101101011011100110000010, input B = 10111111010011001010100100001001, output OUT = 10101000011110001011100110010000
# refmod output for comparison: 10101000011110001011100110010000 	 (-0.000000)
# DUT output for comparison: 10101000011110001011100110010000 	 (-0.000000)
